%YAML 1.1
%TAG !u! tag:unity3d.com,2011:
--- !u!74 &7400000
AnimationClip:
  m_ObjectHideFlags: 0
  m_CorrespondingSourceObject: {fileID: 0}
  m_PrefabInstance: {fileID: 0}
  m_PrefabAsset: {fileID: 0}
  m_Name: Scale_Weigh
  serializedVersion: 6
  m_Legacy: 0
  m_Compressed: 0
  m_UseHighQualityCurve: 1
  m_RotationCurves: []
  m_CompressedRotationCurves: []
  m_EulerCurves: []
  m_PositionCurves: []
  m_ScaleCurves: []
  m_FloatCurves:
  - curve:
      serializedVersion: 2
      m_Curve:
      - serializedVersion: 3
        time: 0
        value: 0.7
        inSlope: 0
        outSlope: 0
        tangentMode: 136
        weightedMode: 0
        inWeight: 0.33333334
        outWeight: 0.33333334
      - serializedVersion: 3
        time: 1
        value: 0.7
        inSlope: 0
        outSlope: 0
        tangentMode: 136
        weightedMode: 0
        inWeight: 0.33333334
        outWeight: 0.33333334
      m_PreInfinity: 2
      m_PostInfinity: 2
      m_RotationOrder: 4
    attribute: material._EmissionColor.r
    path: 
    classID: 23
    script: {fileID: 0}
  - curve:
      serializedVersion: 2
      m_Curve:
      - serializedVersion: 3
        time: 0
        value: 0.7
        inSlope: 0
        outSlope: 0
        tangentMode: 136
        weightedMode: 0
        inWeight: 0.33333334
        outWeight: 0.33333334
      - serializedVersion: 3
        time: 1
        value: 0.7
        inSlope: 0
        outSlope: 0
        tangentMode: 136
        weightedMode: 0
        inWeight: 0.33333334
        outWeight: 0.33333334
      m_PreInfinity: 2
      m_PostInfinity: 2
      m_RotationOrder: 4
    attribute: material._EmissionColor.g
    path: 
    classID: 23
    script: {fileID: 0}
  - curve:
      serializedVersion: 2
      m_Curve:
      - serializedVersion: 3
        time: 0
        value: 0.7
        inSlope: 0
        outSlope: 0
        tangentMode: 136
        weightedMode: 0
        inWeight: 0.33333334
        outWeight: 0.33333334
      - serializedVersion: 3
        time: 1
        value: 0.7
        inSlope: 0
        outSlope: 0
        tangentMode: 136
        weightedMode: 0
        inWeight: 0.33333334
        outWeight: 0.33333334
      m_PreInfinity: 2
      m_PostInfinity: 2
      m_RotationOrder: 4
    attribute: material._EmissionColor.b
    path: 
    classID: 23
    script: {fileID: 0}
  - curve:
      serializedVersion: 2
      m_Curve:
      - serializedVersion: 3
        time: 0
        value: 1
        inSlope: 0
        outSlope: 0
        tangentMode: 136
        weightedMode: 0
        inWeight: 0.33333334
        outWeight: 0.33333334
      - serializedVersion: 3
        time: 1
        value: 1
        inSlope: 0
        outSlope: 0
        tangentMode: 136
        weightedMode: 0
        inWeight: 0.33333334
        outWeight: 0.33333334
      m_PreInfinity: 2
      m_PostInfinity: 2
      m_RotationOrder: 4
    attribute: material._EmissionColor.a
    path: 
    classID: 23
    script: {fileID: 0}
  - curve:
      serializedVersion: 2
      m_Curve:
      - serializedVersion: 3
        time: 0
        value: 0
        inSlope: Infinity
        outSlope: Infinity
        tangentMode: 103
        weightedMode: 0
        inWeight: 0.33333334
        outWeight: 0.33333334
      - serializedVersion: 3
        time: 1
        value: 0
        inSlope: Infinity
        outSlope: Infinity
        tangentMode: 103
        weightedMode: 0
        inWeight: 0.33333334
        outWeight: 0.33333334
      m_PreInfinity: 2
      m_PostInfinity: 2
      m_RotationOrder: 4
    attribute: m_IsActive
    path: Digital/Dig_0
    classID: 1
    script: {fileID: 0}
  - curve:
      serializedVersion: 2
      m_Curve:
      - serializedVersion: 3
        time: 0
        value: 0
        inSlope: Infinity
        outSlope: Infinity
        tangentMode: 103
        weightedMode: 0
        inWeight: 0.33333334
        outWeight: 0.33333334
      - serializedVersion: 3
        time: 1
        value: 0
        inSlope: Infinity
        outSlope: Infinity
        tangentMode: 103
        weightedMode: 0
        inWeight: 0.33333334
        outWeight: 0.33333334
      m_PreInfinity: 2
      m_PostInfinity: 2
      m_RotationOrder: 4
    attribute: m_IsActive
    path: Digital/Dig_2
    classID: 1
    script: {fileID: 0}
  - curve:
      serializedVersion: 2
      m_Curve:
      - serializedVersion: 3
        time: 0
        value: 0
        inSlope: Infinity
        outSlope: Infinity
        tangentMode: 103
        weightedMode: 0
        inWeight: 0.33333334
        outWeight: 0.33333334
      - serializedVersion: 3
        time: 0.31666666
        value: 1
        inSlope: Infinity
        outSlope: Infinity
        tangentMode: 103
        weightedMode: 0
        inWeight: 0.33333334
        outWeight: 0.33333334
      - serializedVersion: 3
        time: 1
        value: 1
        inSlope: Infinity
        outSlope: Infinity
        tangentMode: 103
        weightedMode: 0
        inWeight: 0.33333334
        outWeight: 0.33333334
      m_PreInfinity: 2
      m_PostInfinity: 2
      m_RotationOrder: 4
    attribute: m_IsActive
    path: Digital/Dig_3
    classID: 1
    script: {fileID: 0}
  - curve:
      serializedVersion: 2
      m_Curve:
      - serializedVersion: 3
        time: 0
        value: 1
        inSlope: Infinity
        outSlope: Infinity
        tangentMode: 103
        weightedMode: 0
        inWeight: 0.33333334
        outWeight: 0.33333334
      - serializedVersion: 3
        time: 1
        value: 1
        inSlope: Infinity
        outSlope: Infinity
        tangentMode: 103
        weightedMode: 0
        inWeight: 0.33333334
        outWeight: 0.33333334
      m_PreInfinity: 2
      m_PostInfinity: 2
      m_RotationOrder: 4
    attribute: m_IsActive
    path: Digital/Dig_4
    classID: 1
    script: {fileID: 0}
  - curve:
      serializedVersion: 2
      m_Curve:
      - serializedVersion: 3
        time: 0
        value: 1
        inSlope: Infinity
        outSlope: Infinity
        tangentMode: 103
        weightedMode: 0
        inWeight: 0.33333334
        outWeight: 0.33333334
      - serializedVersion: 3
        time: 1
        value: 1
        inSlope: Infinity
        outSlope: Infinity
        tangentMode: 103
        weightedMode: 0
        inWeight: 0.33333334
        outWeight: 0.33333334
      m_PreInfinity: 2
      m_PostInfinity: 2
      m_RotationOrder: 4
    attribute: m_IsActive
    path: Digital/Dig_5
    classID: 1
    script: {fileID: 0}
  - curve:
      serializedVersion: 2
      m_Curve:
      - serializedVersion: 3
        time: 0
        value: 1
        inSlope: Infinity
        outSlope: Infinity
        tangentMode: 103
        weightedMode: 0
        inWeight: 0.33333334
        outWeight: 0.33333334
      - serializedVersion: 3
        time: 1
        value: 1
        inSlope: Infinity
        outSlope: Infinity
        tangentMode: 103
        weightedMode: 0
        inWeight: 0.33333334
        outWeight: 0.33333334
      m_PreInfinity: 2
      m_PostInfinity: 2
      m_RotationOrder: 4
    attribute: m_IsActive
    path: Digital/Dig_6
    classID: 1
    script: {fileID: 0}
  - curve:
      serializedVersion: 2
      m_Curve:
      - serializedVersion: 3
        time: 0
        value: 1
        inSlope: Infinity
        outSlope: Infinity
        tangentMode: 103
        weightedMode: 0
        inWeight: 0.33333334
        outWeight: 0.33333334
      - serializedVersion: 3
        time: 1
        value: 1
        inSlope: Infinity
        outSlope: Infinity
        tangentMode: 103
        weightedMode: 0
        inWeight: 0.33333334
        outWeight: 0.33333334
      m_PreInfinity: 2
      m_PostInfinity: 2
      m_RotationOrder: 4
    attribute: m_IsActive
    path: Digital/Dig_7
    classID: 1
    script: {fileID: 0}
  - curve:
      serializedVersion: 2
      m_Curve:
      - serializedVersion: 3
        time: 0
        value: 1
        inSlope: Infinity
        outSlope: Infinity
        tangentMode: 103
        weightedMode: 0
        inWeight: 0.33333334
        outWeight: 0.33333334
      - serializedVersion: 3
        time: 1
        value: 0
        inSlope: Infinity
        outSlope: Infinity
        tangentMode: 103
        weightedMode: 0
        inWeight: 0.33333334
        outWeight: 0.33333334
      m_PreInfinity: 2
      m_PostInfinity: 2
      m_RotationOrder: 4
    attribute: m_IsActive
    path: Sounds/S_Weigh
    classID: 1
    script: {fileID: 0}
  m_PPtrCurves:
  - curve:
    - time: 0
      value: {fileID: 21300018, guid: df016eb226ea78142a956085d9761038, type: 3}
    - time: 1
      value: {fileID: 21300018, guid: df016eb226ea78142a956085d9761038, type: 3}
    attribute: m_Sprite
    path: Digital/Dig_0
    classID: 212
    script: {fileID: 0}
  - curve:
    - time: 0
      value: {fileID: 21300018, guid: df016eb226ea78142a956085d9761038, type: 3}
    - time: 1
      value: {fileID: 21300018, guid: df016eb226ea78142a956085d9761038, type: 3}
    attribute: m_Sprite
    path: Digital/Dig_2
    classID: 212
    script: {fileID: 0}
  - curve:
    - time: 0
      value: {fileID: 21300018, guid: df016eb226ea78142a956085d9761038, type: 3}
    - time: 0.31666666
      value: {fileID: 21300000, guid: df016eb226ea78142a956085d9761038, type: 3}
    - time: 1
      value: {fileID: 21300000, guid: df016eb226ea78142a956085d9761038, type: 3}
    attribute: m_Sprite
    path: Digital/Dig_3
    classID: 212
    script: {fileID: 0}
  - curve:
    - time: 0
      value: {fileID: 21300018, guid: df016eb226ea78142a956085d9761038, type: 3}
    - time: 0.16666667
      value: {fileID: 21300000, guid: df016eb226ea78142a956085d9761038, type: 3}
    - time: 0.18333334
      value: {fileID: 21300002, guid: df016eb226ea78142a956085d9761038, type: 3}
    - time: 0.2
      value: {fileID: 21300004, guid: df016eb226ea78142a956085d9761038, type: 3}
    - time: 0.21666667
      value: {fileID: 21300006, guid: df016eb226ea78142a956085d9761038, type: 3}
    - time: 0.23333333
      value: {fileID: 21300008, guid: df016eb226ea78142a956085d9761038, type: 3}
    - time: 0.25
      value: {fileID: 21300010, guid: df016eb226ea78142a956085d9761038, type: 3}
    - time: 0.26666668
      value: {fileID: 21300012, guid: df016eb226ea78142a956085d9761038, type: 3}
    - time: 0.28333333
      value: {fileID: 21300014, guid: df016eb226ea78142a956085d9761038, type: 3}
    - time: 0.3
      value: {fileID: 21300016, guid: df016eb226ea78142a956085d9761038, type: 3}
    - time: 0.31666666
      value: {fileID: 21300018, guid: df016eb226ea78142a956085d9761038, type: 3}
    - time: 0.33333334
      value: {fileID: 21300000, guid: df016eb226ea78142a956085d9761038, type: 3}
    - time: 0.35
      value: {fileID: 21300002, guid: df016eb226ea78142a956085d9761038, type: 3}
    - time: 0.36666667
      value: {fileID: 21300004, guid: df016eb226ea78142a956085d9761038, type: 3}
    - time: 0.38333333
      value: {fileID: 21300006, guid: df016eb226ea78142a956085d9761038, type: 3}
    - time: 0.4
      value: {fileID: 21300008, guid: df016eb226ea78142a956085d9761038, type: 3}
    - time: 0.41666666
      value: {fileID: 21300010, guid: df016eb226ea78142a956085d9761038, type: 3}
    - time: 0.43333334
      value: {fileID: 21300012, guid: df016eb226ea78142a956085d9761038, type: 3}
    - time: 1
      value: {fileID: 21300012, guid: df016eb226ea78142a956085d9761038, type: 3}
    attribute: m_Sprite
    path: Digital/Dig_4
    classID: 212
    script: {fileID: 0}
  - curve:
    - time: 0
      value: {fileID: 21300088, guid: df016eb226ea78142a956085d9761038, type: 3}
    - time: 1
      value: {fileID: 21300088, guid: df016eb226ea78142a956085d9761038, type: 3}
    attribute: m_Sprite
    path: Digital/Dig_5
    classID: 212
    script: {fileID: 0}
  - curve:
    - time: 0
      value: {fileID: 21300018, guid: df016eb226ea78142a956085d9761038, type: 3}
    - time: 0.31666666
      value: {fileID: 21300000, guid: df016eb226ea78142a956085d9761038, type: 3}
    - time: 0.35
      value: {fileID: 21300002, guid: df016eb226ea78142a956085d9761038, type: 3}
    - time: 0.36666667
      value: {fileID: 21300004, guid: df016eb226ea78142a956085d9761038, type: 3}
    - time: 0.38333333
      value: {fileID: 21300006, guid: df016eb226ea78142a956085d9761038, type: 3}
    - time: 0.4
      value: {fileID: 21300008, guid: df016eb226ea78142a956085d9761038, type: 3}
    - time: 0.41666666
      value: {fileID: 21300010, guid: df016eb226ea78142a956085d9761038, type: 3}
    - time: 0.43333334
      value: {fileID: 21300012, guid: df016eb226ea78142a956085d9761038, type: 3}
    - time: 0.45
      value: {fileID: 21300014, guid: df016eb226ea78142a956085d9761038, type: 3}
    - time: 1
      value: {fileID: 21300014, guid: df016eb226ea78142a956085d9761038, type: 3}
    attribute: m_Sprite
    path: Digital/Dig_6
    classID: 212
    script: {fileID: 0}
  - curve:
    - time: 0
      value: {fileID: 21300018, guid: df016eb226ea78142a956085d9761038, type: 3}
    - time: 0.16666667
      value: {fileID: 21300000, guid: df016eb226ea78142a956085d9761038, type: 3}
    - time: 0.18333334
      value: {fileID: 21300002, guid: df016eb226ea78142a956085d9761038, type: 3}
    - time: 0.2
      value: {fileID: 21300004, guid: df016eb226ea78142a956085d9761038, type: 3}
    - time: 0.21666667
      value: {fileID: 21300006, guid: df016eb226ea78142a956085d9761038, type: 3}
    - time: 0.23333333
      value: {fileID: 21300008, guid: df016eb226ea78142a956085d9761038, type: 3}
    - time: 0.25
      value: {fileID: 21300010, guid: df016eb226ea78142a956085d9761038, type: 3}
    - time: 0.26666668
      value: {fileID: 21300012, guid: df016eb226ea78142a956085d9761038, type: 3}
    - time: 0.28333333
      value: {fileID: 21300014, guid: df016eb226ea78142a956085d9761038, type: 3}
    - time: 0.3
      value: {fileID: 21300016, guid: df016eb226ea78142a956085d9761038, type: 3}
    - time: 0.31666666
      value: {fileID: 21300018, guid: df016eb226ea78142a956085d9761038, type: 3}
    - time: 0.33333334
      value: {fileID: 21300000, guid: df016eb226ea78142a956085d9761038, type: 3}
    - time: 0.35
      value: {fileID: 21300002, guid: df016eb226ea78142a956085d9761038, type: 3}
    - time: 0.36666667
      value: {fileID: 21300004, guid: df016eb226ea78142a956085d9761038, type: 3}
    - time: 0.38333333
      value: {fileID: 21300006, guid: df016eb226ea78142a956085d9761038, type: 3}
    - time: 0.4
      value: {fileID: 21300008, guid: df016eb226ea78142a956085d9761038, type: 3}
    - time: 0.41666666
      value: {fileID: 21300010, guid: df016eb226ea78142a956085d9761038, type: 3}
    - time: 0.43333334
      value: {fileID: 21300012, guid: df016eb226ea78142a956085d9761038, type: 3}
    - time: 0.45
      value: {fileID: 21300014, guid: df016eb226ea78142a956085d9761038, type: 3}
    - time: 0.46666667
      value: {fileID: 21300016, guid: df016eb226ea78142a956085d9761038, type: 3}
    - time: 1
      value: {fileID: 21300016, guid: df016eb226ea78142a956085d9761038, type: 3}
    attribute: m_Sprite
    path: Digital/Dig_7
    classID: 212
    script: {fileID: 0}
  m_SampleRate: 60
  m_WrapMode: 0
  m_Bounds:
    m_Center: {x: 0, y: 0, z: 0}
    m_Extent: {x: 0, y: 0, z: 0}
  m_ClipBindingConstant:
    genericBindings:
    - serializedVersion: 2
      path: 628821563
      attribute: 2086281974
      script: {fileID: 0}
      typeID: 1
      customType: 0
      isPPtrCurve: 0
    - serializedVersion: 2
      path: 3413470999
      attribute: 2086281974
      script: {fileID: 0}
      typeID: 1
      customType: 0
      isPPtrCurve: 0
    - serializedVersion: 2
      path: 3161612161
      attribute: 2086281974
      script: {fileID: 0}
      typeID: 1
      customType: 0
      isPPtrCurve: 0
    - serializedVersion: 2
      path: 571918882
      attribute: 2086281974
      script: {fileID: 0}
      typeID: 1
      customType: 0
      isPPtrCurve: 0
    - serializedVersion: 2
      path: 1427241652
      attribute: 2086281974
      script: {fileID: 0}
      typeID: 1
      customType: 0
      isPPtrCurve: 0
    - serializedVersion: 2
      path: 3424168718
      attribute: 2086281974
      script: {fileID: 0}
      typeID: 1
      customType: 0
      isPPtrCurve: 0
    - serializedVersion: 2
      path: 3139410840
      attribute: 2086281974
      script: {fileID: 0}
      typeID: 1
      customType: 0
      isPPtrCurve: 0
    - serializedVersion: 2
      path: 1804616087
      attribute: 2086281974
      script: {fileID: 0}
      typeID: 1
      customType: 0
      isPPtrCurve: 0
    - serializedVersion: 2
      path: 628821563
      attribute: 0
      script: {fileID: 0}
      typeID: 212
      customType: 23
      isPPtrCurve: 1
    - serializedVersion: 2
      path: 3413470999
      attribute: 0
      script: {fileID: 0}
      typeID: 212
      customType: 23
      isPPtrCurve: 1
    - serializedVersion: 2
      path: 3161612161
      attribute: 0
      script: {fileID: 0}
      typeID: 212
      customType: 23
      isPPtrCurve: 1
    - serializedVersion: 2
      path: 571918882
      attribute: 0
      script: {fileID: 0}
      typeID: 212
      customType: 23
      isPPtrCurve: 1
    - serializedVersion: 2
      path: 1427241652
      attribute: 0
      script: {fileID: 0}
      typeID: 212
      customType: 23
      isPPtrCurve: 1
    - serializedVersion: 2
      path: 3424168718
      attribute: 0
      script: {fileID: 0}
      typeID: 212
      customType: 23
      isPPtrCurve: 1
    - serializedVersion: 2
      path: 3139410840
      attribute: 0
      script: {fileID: 0}
      typeID: 212
      customType: 23
      isPPtrCurve: 1
    - serializedVersion: 2
      path: 0
      attribute: 1218664834
      script: {fileID: 0}
      typeID: 23
      customType: 22
      isPPtrCurve: 0
    - serializedVersion: 2
      path: 0
      attribute: 1487100290
      script: {fileID: 0}
      typeID: 23
      customType: 22
      isPPtrCurve: 0
    - serializedVersion: 2
      path: 0
      attribute: 1755535746
      script: {fileID: 0}
      typeID: 23
      customType: 22
      isPPtrCurve: 0
    - serializedVersion: 2
      path: 0
      attribute: 2023971202
      script: {fileID: 0}
      typeID: 23
      customType: 22
      isPPtrCurve: 0
    pptrCurveMapping:
    - {fileID: 21300018, guid: df016eb226ea78142a956085d9761038, type: 3}
    - {fileID: 21300018, guid: df016eb226ea78142a956085d9761038, type: 3}
    - {fileID: 21300018, guid: df016eb226ea78142a956085d9761038, type: 3}
    - {fileID: 21300018, guid: df016eb226ea78142a956085d9761038, type: 3}
    - {fileID: 21300018, guid: df016eb226ea78142a956085d9761038, type: 3}
    - {fileID: 21300000, guid: df016eb226ea78142a956085d9761038, type: 3}
    - {fileID: 21300000, guid: df016eb226ea78142a956085d9761038, type: 3}
    - {fileID: 21300018, guid: df016eb226ea78142a956085d9761038, type: 3}
    - {fileID: 21300000, guid: df016eb226ea78142a956085d9761038, type: 3}
    - {fileID: 21300002, guid: df016eb226ea78142a956085d9761038, type: 3}
    - {fileID: 21300004, guid: df016eb226ea78142a956085d9761038, type: 3}
    - {fileID: 21300006, guid: df016eb226ea78142a956085d9761038, type: 3}
    - {fileID: 21300008, guid: df016eb226ea78142a956085d9761038, type: 3}
    - {fileID: 21300010, guid: df016eb226ea78142a956085d9761038, type: 3}
    - {fileID: 21300012, guid: df016eb226ea78142a956085d9761038, type: 3}
    - {fileID: 21300014, guid: df016eb226ea78142a956085d9761038, type: 3}
    - {fileID: 21300016, guid: df016eb226ea78142a956085d9761038, type: 3}
    - {fileID: 21300018, guid: df016eb226ea78142a956085d9761038, type: 3}
    - {fileID: 21300000, guid: df016eb226ea78142a956085d9761038, type: 3}
    - {fileID: 21300002, guid: df016eb226ea78142a956085d9761038, type: 3}
    - {fileID: 21300004, guid: df016eb226ea78142a956085d9761038, type: 3}
    - {fileID: 21300006, guid: df016eb226ea78142a956085d9761038, type: 3}
    - {fileID: 21300008, guid: df016eb226ea78142a956085d9761038, type: 3}
    - {fileID: 21300010, guid: df016eb226ea78142a956085d9761038, type: 3}
    - {fileID: 21300012, guid: df016eb226ea78142a956085d9761038, type: 3}
    - {fileID: 21300012, guid: df016eb226ea78142a956085d9761038, type: 3}
    - {fileID: 21300088, guid: df016eb226ea78142a956085d9761038, type: 3}
    - {fileID: 21300088, guid: df016eb226ea78142a956085d9761038, type: 3}
    - {fileID: 21300018, guid: df016eb226ea78142a956085d9761038, type: 3}
    - {fileID: 21300000, guid: df016eb226ea78142a956085d9761038, type: 3}
    - {fileID: 21300002, guid: df016eb226ea78142a956085d9761038, type: 3}
    - {fileID: 21300004, guid: df016eb226ea78142a956085d9761038, type: 3}
    - {fileID: 21300006, guid: df016eb226ea78142a956085d9761038, type: 3}
    - {fileID: 21300008, guid: df016eb226ea78142a956085d9761038, type: 3}
    - {fileID: 21300010, guid: df016eb226ea78142a956085d9761038, type: 3}
    - {fileID: 21300012, guid: df016eb226ea78142a956085d9761038, type: 3}
    - {fileID: 21300014, guid: df016eb226ea78142a956085d9761038, type: 3}
    - {fileID: 21300014, guid: df016eb226ea78142a956085d9761038, type: 3}
    - {fileID: 21300018, guid: df016eb226ea78142a956085d9761038, type: 3}
    - {fileID: 21300000, guid: df016eb226ea78142a956085d9761038, type: 3}
    - {fileID: 21300002, guid: df016eb226ea78142a956085d9761038, type: 3}
    - {fileID: 21300004, guid: df016eb226ea78142a956085d9761038, type: 3}
    - {fileID: 21300006, guid: df016eb226ea78142a956085d9761038, type: 3}
    - {fileID: 21300008, guid: df016eb226ea78142a956085d9761038, type: 3}
    - {fileID: 21300010, guid: df016eb226ea78142a956085d9761038, type: 3}
    - {fileID: 21300012, guid: df016eb226ea78142a956085d9761038, type: 3}
    - {fileID: 21300014, guid: df016eb226ea78142a956085d9761038, type: 3}
    - {fileID: 21300016, guid: df016eb226ea78142a956085d9761038, type: 3}
    - {fileID: 21300018, guid: df016eb226ea78142a956085d9761038, type: 3}
    - {fileID: 21300000, guid: df016eb226ea78142a956085d9761038, type: 3}
    - {fileID: 21300002, guid: df016eb226ea78142a956085d9761038, type: 3}
    - {fileID: 21300004, guid: df016eb226ea78142a956085d9761038, type: 3}
    - {fileID: 21300006, guid: df016eb226ea78142a956085d9761038, type: 3}
    - {fileID: 21300008, guid: df016eb226ea78142a956085d9761038, type: 3}
    - {fileID: 21300010, guid: df016eb226ea78142a956085d9761038, type: 3}
    - {fileID: 21300012, guid: df016eb226ea78142a956085d9761038, type: 3}
    - {fileID: 21300014, guid: df016eb226ea78142a956085d9761038, type: 3}
    - {fileID: 21300016, guid: df016eb226ea78142a956085d9761038, type: 3}
    - {fileID: 21300016, guid: df016eb226ea78142a956085d9761038, type: 3}
  m_AnimationClipSettings:
    serializedVersion: 2
    m_AdditiveReferencePoseClip: {fileID: 0}
    m_AdditiveReferencePoseTime: 0
    m_StartTime: 0
    m_StopTime: 1.0166667
    m_OrientationOffsetY: 0
    m_Level: 0
    m_CycleOffset: 0
    m_HasAdditiveReferencePose: 0
    m_LoopTime: 0
    m_LoopBlend: 0
    m_LoopBlendOrientation: 0
    m_LoopBlendPositionY: 0
    m_LoopBlendPositionXZ: 0
    m_KeepOriginalOrientation: 0
    m_KeepOriginalPositionY: 1
    m_KeepOriginalPositionXZ: 0
    m_HeightFromFeet: 0
    m_Mirror: 0
  m_EditorCurves:
  - curve:
      serializedVersion: 2
      m_Curve:
      - serializedVersion: 3
        time: 0
        value: 0.7
        inSlope: 0
        outSlope: 0
        tangentMode: 136
        weightedMode: 0
        inWeight: 0.33333334
        outWeight: 0.33333334
      - serializedVersion: 3
        time: 1
        value: 0.7
        inSlope: 0
        outSlope: 0
        tangentMode: 136
        weightedMode: 0
        inWeight: 0.33333334
        outWeight: 0.33333334
      m_PreInfinity: 2
      m_PostInfinity: 2
      m_RotationOrder: 4
    attribute: material._EmissionColor.r
    path: 
    classID: 23
    script: {fileID: 0}
  - curve:
      serializedVersion: 2
      m_Curve:
      - serializedVersion: 3
        time: 0
        value: 0.7
        inSlope: 0
        outSlope: 0
        tangentMode: 136
        weightedMode: 0
        inWeight: 0.33333334
        outWeight: 0.33333334
      - serializedVersion: 3
        time: 1
        value: 0.7
        inSlope: 0
        outSlope: 0
        tangentMode: 136
        weightedMode: 0
        inWeight: 0.33333334
        outWeight: 0.33333334
      m_PreInfinity: 2
      m_PostInfinity: 2
      m_RotationOrder: 4
    attribute: material._EmissionColor.g
    path: 
    classID: 23
    script: {fileID: 0}
  - curve:
      serializedVersion: 2
      m_Curve:
      - serializedVersion: 3
        time: 0
        value: 0.7
        inSlope: 0
        outSlope: 0
        tangentMode: 136
        weightedMode: 0
        inWeight: 0.33333334
        outWeight: 0.33333334
      - serializedVersion: 3
        time: 1
        value: 0.7
        inSlope: 0
        outSlope: 0
        tangentMode: 136
        weightedMode: 0
        inWeight: 0.33333334
        outWeight: 0.33333334
      m_PreInfinity: 2
      m_PostInfinity: 2
      m_RotationOrder: 4
    attribute: material._EmissionColor.b
    path: 
    classID: 23
    script: {fileID: 0}
  - curve:
      serializedVersion: 2
      m_Curve:
      - serializedVersion: 3
        time: 0
        value: 1
        inSlope: 0
        outSlope: 0
        tangentMode: 136
        weightedMode: 0
        inWeight: 0.33333334
        outWeight: 0.33333334
      - serializedVersion: 3
        time: 1
        value: 1
        inSlope: 0
        outSlope: 0
        tangentMode: 136
        weightedMode: 0
        inWeight: 0.33333334
        outWeight: 0.33333334
      m_PreInfinity: 2
      m_PostInfinity: 2
      m_RotationOrder: 4
    attribute: material._EmissionColor.a
    path: 
    classID: 23
    script: {fileID: 0}
  - curve:
      serializedVersion: 2
      m_Curve:
      - serializedVersion: 3
        time: 0
        value: 0
        inSlope: Infinity
        outSlope: Infinity
        tangentMode: 103
        weightedMode: 0
        inWeight: 0.33333334
        outWeight: 0.33333334
      - serializedVersion: 3
        time: 1
        value: 0
        inSlope: Infinity
        outSlope: Infinity
        tangentMode: 103
        weightedMode: 0
        inWeight: 0.33333334
        outWeight: 0.33333334
      m_PreInfinity: 2
      m_PostInfinity: 2
      m_RotationOrder: 4
    attribute: m_IsActive
    path: Digital/Dig_0
    classID: 1
    script: {fileID: 0}
  - curve:
      serializedVersion: 2
      m_Curve:
      - serializedVersion: 3
        time: 0
        value: 0
        inSlope: Infinity
        outSlope: Infinity
        tangentMode: 103
        weightedMode: 0
        inWeight: 0.33333334
        outWeight: 0.33333334
      - serializedVersion: 3
        time: 1
        value: 0
        inSlope: Infinity
        outSlope: Infinity
        tangentMode: 103
        weightedMode: 0
        inWeight: 0.33333334
        outWeight: 0.33333334
      m_PreInfinity: 2
      m_PostInfinity: 2
      m_RotationOrder: 4
    attribute: m_IsActive
    path: Digital/Dig_2
    classID: 1
    script: {fileID: 0}
  - curve:
      serializedVersion: 2
      m_Curve:
      - serializedVersion: 3
        time: 0
        value: 0
        inSlope: Infinity
        outSlope: Infinity
        tangentMode: 103
        weightedMode: 0
        inWeight: 0.33333334
        outWeight: 0.33333334
      - serializedVersion: 3
        time: 0.31666666
        value: 1
        inSlope: Infinity
        outSlope: Infinity
        tangentMode: 103
        weightedMode: 0
        inWeight: 0.33333334
        outWeight: 0.33333334
      - serializedVersion: 3
        time: 1
        value: 1
        inSlope: Infinity
        outSlope: Infinity
        tangentMode: 103
        weightedMode: 0
        inWeight: 0.33333334
        outWeight: 0.33333334
      m_PreInfinity: 2
      m_PostInfinity: 2
      m_RotationOrder: 4
    attribute: m_IsActive
    path: Digital/Dig_3
    classID: 1
    script: {fileID: 0}
  - curve:
      serializedVersion: 2
      m_Curve:
      - serializedVersion: 3
        time: 0
        value: 1
        inSlope: Infinity
        outSlope: Infinity
        tangentMode: 103
        weightedMode: 0
        inWeight: 0.33333334
        outWeight: 0.33333334
      - serializedVersion: 3
        time: 1
        value: 1
        inSlope: Infinity
        outSlope: Infinity
        tangentMode: 103
        weightedMode: 0
        inWeight: 0.33333334
        outWeight: 0.33333334
      m_PreInfinity: 2
      m_PostInfinity: 2
      m_RotationOrder: 4
    attribute: m_IsActive
    path: Digital/Dig_4
    classID: 1
    script: {fileID: 0}
  - curve:
      serializedVersion: 2
      m_Curve:
      - serializedVersion: 3
        time: 0
        value: 1
        inSlope: Infinity
        outSlope: Infinity
        tangentMode: 103
        weightedMode: 0
        inWeight: 0.33333334
        outWeight: 0.33333334
      - serializedVersion: 3
        time: 1
        value: 1
        inSlope: Infinity
        outSlope: Infinity
        tangentMode: 103
        weightedMode: 0
        inWeight: 0.33333334
        outWeight: 0.33333334
      m_PreInfinity: 2
      m_PostInfinity: 2
      m_RotationOrder: 4
    attribute: m_IsActive
    path: Digital/Dig_5
    classID: 1
    script: {fileID: 0}
  - curve:
      serializedVersion: 2
      m_Curve:
      - serializedVersion: 3
        time: 0
        value: 1
        inSlope: Infinity
        outSlope: Infinity
        tangentMode: 103
        weightedMode: 0
        inWeight: 0.33333334
        outWeight: 0.33333334
      - serializedVersion: 3
        time: 1
        value: 1
        inSlope: Infinity
        outSlope: Infinity
        tangentMode: 103
        weightedMode: 0
        inWeight: 0.33333334
        outWeight: 0.33333334
      m_PreInfinity: 2
      m_PostInfinity: 2
      m_RotationOrder: 4
    attribute: m_IsActive
    path: Digital/Dig_6
    classID: 1
    script: {fileID: 0}
  - curve:
      serializedVersion: 2
      m_Curve:
      - serializedVersion: 3
        time: 0
        value: 1
        inSlope: Infinity
        outSlope: Infinity
        tangentMode: 103
        weightedMode: 0
        inWeight: 0.33333334
        outWeight: 0.33333334
      - serializedVersion: 3
        time: 1
        value: 1
        inSlope: Infinity
        outSlope: Infinity
        tangentMode: 103
        weightedMode: 0
        inWeight: 0.33333334
        outWeight: 0.33333334
      m_PreInfinity: 2
      m_PostInfinity: 2
      m_RotationOrder: 4
    attribute: m_IsActive
    path: Digital/Dig_7
    classID: 1
    script: {fileID: 0}
  - curve:
      serializedVersion: 2
      m_Curve:
      - serializedVersion: 3
        time: 0
        value: 1
        inSlope: Infinity
        outSlope: Infinity
        tangentMode: 103
        weightedMode: 0
        inWeight: 0.33333334
        outWeight: 0.33333334
      - serializedVersion: 3
        time: 1
        value: 0
        inSlope: Infinity
        outSlope: Infinity
        tangentMode: 103
        weightedMode: 0
        inWeight: 0.33333334
        outWeight: 0.33333334
      m_PreInfinity: 2
      m_PostInfinity: 2
      m_RotationOrder: 4
    attribute: m_IsActive
    path: Sounds/S_Weigh
    classID: 1
    script: {fileID: 0}
  m_EulerEditorCurves: []
  m_HasGenericRootTransform: 0
  m_HasMotionFloatCurves: 0
  m_Events: []
