%YAML 1.1
%TAG !u! tag:unity3d.com,2011:
--- !u!1001 &8776366779245804394
PrefabInstance:
  m_ObjectHideFlags: 0
  serializedVersion: 2
  m_Modification:
    m_TransformParent: {fileID: 0}
    m_Modifications:
    - target: {fileID: 4573536110133134, guid: e5e4693c45e7a0f459c40340d2c709ce, type: 3}
      propertyPath: m_LocalPosition.x
      value: 3.46
      objectReference: {fileID: 0}
    - target: {fileID: 4573536110133134, guid: e5e4693c45e7a0f459c40340d2c709ce, type: 3}
      propertyPath: m_LocalPosition.y
      value: 0
      objectReference: {fileID: 0}
    - target: {fileID: 4573536110133134, guid: e5e4693c45e7a0f459c40340d2c709ce, type: 3}
      propertyPath: m_LocalPosition.z
      value: -0.10999966
      objectReference: {fileID: 0}
    - target: {fileID: 4573536110133134, guid: e5e4693c45e7a0f459c40340d2c709ce, type: 3}
      propertyPath: m_LocalRotation.x
      value: -0
      objectReference: {fileID: 0}
    - target: {fileID: 4573536110133134, guid: e5e4693c45e7a0f459c40340d2c709ce, type: 3}
      propertyPath: m_LocalRotation.y
      value: -0
      objectReference: {fileID: 0}
    - target: {fileID: 4573536110133134, guid: e5e4693c45e7a0f459c40340d2c709ce, type: 3}
      propertyPath: m_LocalRotation.z
      value: -0
      objectReference: {fileID: 0}
    - target: {fileID: 4573536110133134, guid: e5e4693c45e7a0f459c40340d2c709ce, type: 3}
      propertyPath: m_LocalRotation.w
      value: 1
      objectReference: {fileID: 0}
    - target: {fileID: 4573536110133134, guid: e5e4693c45e7a0f459c40340d2c709ce, type: 3}
      propertyPath: m_RootOrder
      value: 0
      objectReference: {fileID: 0}
    m_RemovedComponents: []
  m_SourcePrefab: {fileID: 100100000, guid: e5e4693c45e7a0f459c40340d2c709ce, type: 3}
