%YAML 1.1
%TAG !u! tag:unity3d.com,2011:
--- !u!1001 &2515165967401192711
PrefabInstance:
  m_ObjectHideFlags: 0
  serializedVersion: 2
  m_Modification:
    m_TransformParent: {fileID: 0}
    m_Modifications:
    - target: {fileID: 4007417558127568, guid: daa8d4a133dc8ee4f8636a23a8eee8d2, type: 3}
      propertyPath: m_LocalPosition.x
      value: 6.9543195
      objectReference: {fileID: 0}
    - target: {fileID: 4007417558127568, guid: daa8d4a133dc8ee4f8636a23a8eee8d2, type: 3}
      propertyPath: m_LocalPosition.y
      value: 0.09792137
      objectReference: {fileID: 0}
    - target: {fileID: 4007417558127568, guid: daa8d4a133dc8ee4f8636a23a8eee8d2, type: 3}
      propertyPath: m_LocalPosition.z
      value: -16.37519
      objectReference: {fileID: 0}
    - target: {fileID: 4007417558127568, guid: daa8d4a133dc8ee4f8636a23a8eee8d2, type: 3}
      propertyPath: m_LocalRotation.x
      value: 0.000000021855694
      objectReference: {fileID: 0}
    - target: {fileID: 4007417558127568, guid: daa8d4a133dc8ee4f8636a23a8eee8d2, type: 3}
      propertyPath: m_LocalRotation.y
      value: -0
      objectReference: {fileID: 0}
    - target: {fileID: 4007417558127568, guid: daa8d4a133dc8ee4f8636a23a8eee8d2, type: 3}
      propertyPath: m_LocalRotation.z
      value: -0
      objectReference: {fileID: 0}
    - target: {fileID: 4007417558127568, guid: daa8d4a133dc8ee4f8636a23a8eee8d2, type: 3}
      propertyPath: m_LocalRotation.w
      value: 1
      objectReference: {fileID: 0}
    - target: {fileID: 4007417558127568, guid: daa8d4a133dc8ee4f8636a23a8eee8d2, type: 3}
      propertyPath: m_RootOrder
      value: 0
      objectReference: {fileID: 0}
    m_RemovedComponents: []
  m_SourcePrefab: {fileID: 100100000, guid: daa8d4a133dc8ee4f8636a23a8eee8d2, type: 3}
