%YAML 1.1
%TAG !u! tag:unity3d.com,2011:
--- !u!1001 &2082064885538273783
PrefabInstance:
  m_ObjectHideFlags: 0
  serializedVersion: 2
  m_Modification:
    m_TransformParent: {fileID: 0}
    m_Modifications:
    - target: {fileID: 4478888722079222, guid: 4eecec6b13bb35a4bb26aa65818e3e1b, type: 3}
      propertyPath: m_LocalPosition.x
      value: -0
      objectReference: {fileID: 0}
    - target: {fileID: 4478888722079222, guid: 4eecec6b13bb35a4bb26aa65818e3e1b, type: 3}
      propertyPath: m_LocalPosition.y
      value: 0
      objectReference: {fileID: 0}
    - target: {fileID: 4478888722079222, guid: 4eecec6b13bb35a4bb26aa65818e3e1b, type: 3}
      propertyPath: m_LocalPosition.z
      value: 1
      objectReference: {fileID: 0}
    - target: {fileID: 4478888722079222, guid: 4eecec6b13bb35a4bb26aa65818e3e1b, type: 3}
      propertyPath: m_LocalRotation.x
      value: 0
      objectReference: {fileID: 0}
    - target: {fileID: 4478888722079222, guid: 4eecec6b13bb35a4bb26aa65818e3e1b, type: 3}
      propertyPath: m_LocalRotation.y
      value: -0
      objectReference: {fileID: 0}
    - target: {fileID: 4478888722079222, guid: 4eecec6b13bb35a4bb26aa65818e3e1b, type: 3}
      propertyPath: m_LocalRotation.z
      value: -0
      objectReference: {fileID: 0}
    - target: {fileID: 4478888722079222, guid: 4eecec6b13bb35a4bb26aa65818e3e1b, type: 3}
      propertyPath: m_LocalRotation.w
      value: 1
      objectReference: {fileID: 0}
    - target: {fileID: 4478888722079222, guid: 4eecec6b13bb35a4bb26aa65818e3e1b, type: 3}
      propertyPath: m_RootOrder
      value: 0
      objectReference: {fileID: 0}
    m_RemovedComponents: []
  m_SourcePrefab: {fileID: 100100000, guid: 4eecec6b13bb35a4bb26aa65818e3e1b, type: 3}
