%YAML 1.1
%TAG !u! tag:unity3d.com,2011:
--- !u!21 &2100000
Material:
  serializedVersion: 6
  m_ObjectHideFlags: 0
  m_CorrespondingSourceObject: {fileID: 0}
  m_PrefabInstance: {fileID: 0}
  m_PrefabAsset: {fileID: 0}
  m_Name: M_WaterFlow 1
  m_Shader: {fileID: 4800000, guid: 43ba2b3116d229a498c7e65d4742441d, type: 3}
  m_ShaderKeywords: 
  m_LightmapFlags: 5
  m_EnableInstancingVariants: 0
  m_DoubleSidedGI: 0
  m_CustomRenderQueue: -1
  stringTagMap: {}
  disabledShaderPasses: []
  m_SavedProperties:
    serializedVersion: 3
    m_TexEnvs:
    - _Foam:
        m_Texture: {fileID: 2800000, guid: d01457b88b1c5174ea4235d140b5fab8, type: 3}
        m_Scale: {x: 20, y: 20}
        m_Offset: {x: 0, y: 0}
    - _Normal:
        m_Texture: {fileID: 2800000, guid: fb6566c21f717904f83743a5a76dd0b0, type: 3}
        m_Scale: {x: 20, y: 20}
        m_Offset: {x: 0, y: 0}
    - _Normal2:
        m_Texture: {fileID: 2800000, guid: fd8b85b15dfe0ad4cbbc5613a12722c6, type: 3}
        m_Scale: {x: 1, y: 1}
        m_Offset: {x: 0, y: 0}
    - _T_Waterflow:
        m_Texture: {fileID: 2800000, guid: 32d13e194af5bd3438e29339b0346b65, type: 3}
        m_Scale: {x: 1, y: 1}
        m_Offset: {x: 0, y: 0}
    - _TextureSample0:
        m_Texture: {fileID: 2800000, guid: fd8b85b15dfe0ad4cbbc5613a12722c6, type: 3}
        m_Scale: {x: 1, y: 1}
        m_Offset: {x: 0, y: 0}
    - _TextureSample1:
        m_Texture: {fileID: 2800000, guid: 5ffde7042bf4b7243a89eaf85e11fec6, type: 3}
        m_Scale: {x: 10, y: 10}
        m_Offset: {x: 0, y: 0}
    - _WaterNormal:
        m_Texture: {fileID: 2800000, guid: a62319b16745f0f4fb30ccc446576433, type: 3}
        m_Scale: {x: 2, y: 0.5}
        m_Offset: {x: 0, y: 0}
    - _texcoord:
        m_Texture: {fileID: 0}
        m_Scale: {x: 1, y: 1}
        m_Offset: {x: 0, y: 0}
    m_Floats:
    - _ChromaticAberration: 0.079
    - _Depth: 0.98
    - _DepthFalloff: -13
    - _Distortion: 0.2
    - _Float0: 0.0192
    - _Float1: 2
    - _Float3: 0.9
    - _Foam: 1.79
    - _FoamDepth: 0.94
    - _FoamFalloff: -60
    - _FoamPower: 4
    - _FoamSmoothness: 0.2
    - _FoamSpecular: 0
    - _Foamfalloff: -4
    - _MaskClipValue: 0.5
    - _Normal01Scale: 1.3
    - _Normal02Scale: 2.3
    - _NormalScale: 1.64
    - _Occlusion: 0.2
    - _Opacity: 0.27
    - _Refraction: 1.13
    - _Smoothness: 0.9
    - _Specular: 0.1
    - _TransAmbient: 0.162
    - _TransDirect: 0.192
    - _TransNormalDistortion: 0.087
    - _TransScattering: 2
    - _TransShadow: 0.533
    - _Translucency: 3
    - _Transluceny: 3.01
    - _WaterDepth: 6.38
    - _WaterFalloff: -0.67
    - _WaterSmoothness: 0.9
    - _WaterSpecular: 0.05
    - __dirty: 0
    m_Colors:
    - _Color0: {r: 0, g: 0.6749488, b: 0.8088235, a: 0}
    - _Color1: {r: 0, g: 0.048731543, b: 0.22794023, a: 0}
    - _DeepColor: {r: 0, g: 0.0431017, b: 0.24999827, a: 0}
    - _ShalowColor: {r: 0, g: 0.80882317, b: 0.8088235, a: 0}
    - _SpecColor: {r: 1, g: 1, b: 1, a: 1}
    - _WaterColor: {r: 0.55406576, g: 0.8260947, b: 0.89705884, a: 1}
